﻿/ref:"C:\Users\Albert\Documents\Classe Dam 2 2019-2020\Projecte Cliker\cliker\Cliker\Cliker.UWP\obj\x86\Release\ilc\intermediate\PreMergeILTransformed"
/ref:"C:\Users\Albert\.nuget\packages\runtime.win10-x86.microsoft.net.native.sharedlibrary\2.1.8\tools\SharedLibrary\ret\AnalysisILToc"
/ref:"C:\Users\Albert\Documents\Classe Dam 2 2019-2020\Projecte Cliker\cliker\Cliker\Cliker.UWP\obj\x86\Release\ilc\intermediate\PreMergeILTransformed"
/ref:"C:\Users\Albert\Documents\Classe Dam 2 2019-2020\Projecte Cliker\cliker\Cliker\Cliker.UWP\obj\x86\Release\ilc\in\\"
/ref:"C:\Users\Albert\.nuget\packages\runtime.win10-x86.microsoft.net.native.compiler\2.1.8\tools\x86\ilc\lib\Private\\"
/ref:"C:\Users\Albert\Documents\Classe Dam 2 2019-2020\Projecte Cliker\cliker\Cliker\Cliker.UWP\obj\x86\Release\ilc\in"
/ref:"C:\Users\Albert\Documents\Classe Dam 2 2019-2020\Projecte Cliker\cliker\Cliker\Cliker.UWP\obj\x86\Release\ilc\in\WinMetadata"
/ca:System.Private.CoreLib
/cscpath:"C:\Users\Albert\.nuget\packages\microsoft.net.native.compiler\2.1.8\tools\csc"
/out:"C:\Users\Albert\Documents\Classe Dam 2 2019-2020\Projecte Cliker\cliker\Cliker\Cliker.UWP\obj\x86\Release\ilc\intermediate\SgGenerated\\"
/int:"C:\Users\Albert\Documents\Classe Dam 2 2019-2020\Projecte Cliker\cliker\Cliker\Cliker.UWP\obj\x86\Release\ilc\intermediate\Cliker.UWP.Sg"
"@C:\Users\Albert\Documents\Classe Dam 2 2019-2020\Projecte Cliker\cliker\Cliker\Cliker.UWP\obj\x86\Release\ilc\intermediate\Cliker.UWP.Sg\ComputedSerializationInput.txt"
